…
``` r
data("brfss_smart2010")
brfss_smart2010 = 
  janitor::clean_names(brfss_smart2010) %>% 
  filter(topic == "Overall Health")
```

### Problem 2

``` r
data("instacart")
instacart
```

    ## # A tibble: 1,384,617 x 15
    ##    order_id product_id add_to_cart_ord~ reordered user_id eval_set
    ##       <int>      <int>            <int>     <int>   <int> <chr>   
    ##  1        1      49302                1         1  112108 train   
    ##  2        1      11109                2         1  112108 train   
    ##  3        1      10246                3         0  112108 train   
    ##  4        1      49683                4         0  112108 train   
    ##  5        1      43633                5         1  112108 train   
    ##  6        1      13176                6         0  112108 train   
    ##  7        1      47209                7         0  112108 train   
    ##  8        1      22035                8         1  112108 train   
    ##  9       36      39612                1         0   79431 train   
    ## 10       36      19660                2         1   79431 train   
    ## # ... with 1,384,607 more rows, and 9 more variables: order_number <int>,
    ## #   order_dow <int>, order_hour_of_day <int>,
    ## #   days_since_prior_order <int>, product_name <chr>, aisle_id <int>,
    ## #   department_id <int>, aisle <chr>, department <chr>
…
The key variables are `order_id` (which identifies each order), `product_id`(which identifies each item perchased by a user) and `user_id`(which identifies the user).
For example, row 1 to row 8 is a order placed by customer with the `user_id` 112108, each row is a product ordered by this custormer. This user mainly perchased diary and produce for daily comsumption, along with a bottle of canned seafood. This user order his(her) groceries at 10am. His(her) last order on instacard was 9 days ago, and he(she) has ordered some of the products before. This dataset has 1384617 rows and 15 variables.

To answer the questions:

``` r
instacart %>% 
  group_by(aisle, aisle_id) %>% 
  summarize(n_aisle = n()) %>% 
  arrange(desc(n_aisle))
```

    ## # A tibble: 134 x 3
    ## # Groups:   aisle [134]
    ##    aisle                         aisle_id n_aisle
    ##    <chr>                            <int>   <int>
    ##  1 fresh vegetables                    83  150609
    ##  2 fresh fruits                        24  150473
    ##  3 packaged vegetables fruits         123   78493
    ##  4 yogurt                             120   55240
    ##  5 packaged cheese                     21   41699
    ##  6 water seltzer sparkling water      115   36617
    ##  7 milk                                84   32644
    ##  8 chips pretzels                     107   31269
    ##  9 soy lactosefree                     91   26240
    ## 10 bread                              112   23635
    ## # ... with 124 more rows
…
